f_name,l_name,off_sale,shipping_country,email
zain,g,23,pk,zain@zain.com
ozair,h,43,ca,ozair@ozair.com
asif,i,45,in,asif@asif.com
shah,j,65,cn,shah@shah.com
a,k,34,pk,zain@zain.com
b,l,34,ca,ozair@ozair.com
c,m,67,in,asif@asif.com
d,n,89,cn,shah@shah.com
e,o,9,pk,zain@zain.com
f,p,45,ca,ozair@ozair.com
